[
  {
    "id": 1,
    "name": "Brad",
    "salary": 350
  },
  {
    "id": 2,
    "name": "John",
    "salary": 400
  },
  {
    "id": 3,
    "name": "Sara",
    "salary": 250
  },
  {
    "id":45,
    "name": "Nick",
    "salary": 225
  }
]